Cookbook to Draw KHCoder-like Visualizations Using R - 2 抽出語メニュー
…
dat

# A tibble: 98 × 5
       n degree   prop cum_degree cum_prop
   <dbl>  <dbl>  <dbl>      <dbl>    <dbl>
 1     1   2938 0.111        2938    0.111
 2     2   1934 0.0729       4872    0.184
 3     3   1506 0.0568       6378    0.240
 4     4   1248 0.0470       7626    0.287
 5     5    955 0.0360       8581    0.323
 6     6    768 0.0289       9349    0.352
 7     7    868 0.0327      10217    0.385
 8     8    592 0.0223      10809    0.407
 9     9    531 0.0200      11340    0.427
10    10    570 0.0215      11910    0.449
# ℹ 88 more rows
…
dat <-
  dplyr::tbl(con, "tokens") |>
  dplyr::filter(
    !pos %in% c("その他", "名詞B", "動詞B", "形容詞B", "副詞B", "否定助動詞", "形容詞（非自立）")
  ) |>
  dplyr::mutate(token = paste(token, pos, sep = "/")) |>
  dplyr::count(label, token) |>
  dplyr::collect() |>
  tidytext::cast_dfm(label, token, n) |>
  quanteda.textstats::textstat_frequency() |>
  dplyr::as_tibble()

dat

# A tibble: 5,797 × 5
   feature       frequency  rank docfreq group
   <chr>             <dbl> <dbl>   <dbl> <chr>
 1 先生/名詞           595     1      53 all  
 2 K/未知語            411     2      36 all  
 3 奥さん/名詞         388     3      54 all  
 4 父/名詞C            269     4      41 all  
 5 自分/名詞           264     5      93 all  
 6 人/名詞C            176     6      84 all  
 7 母/名詞C            170     7      38 all  
 8 前/副詞可能         169     8      97 all  
 9 お嬢さん/名詞       168     9      34 all  
10 見/動詞             157    10      78 all  
# ℹ 5,787 more rows
…
