Cookbook to Draw KHCoder-like Visualizations Using R - 1 テキストの前処理
…
tbl <-
  readxl::read_xls("tutorial_jp/kokoro.xls",
    col_names = c("text", "section", "chapter", "label"),
    skip = 1
  ) |>
  dplyr::mutate(
    doc_id = dplyr::row_number(),
    dplyr::across(where(is.character), ~ audubon::strj_normalize(.))
  ) |>
  dplyr::filter(!gibasa::is_blank(text)) |>
  dplyr::relocate(doc_id, text, section, label, chapter)

tbl
#> # A tibble: 1,213 × 5
#>    doc_id text                                            section label  chapter
#>     <int> <chr>                                           <chr>   <chr>  <chr>  
#>  1      1 私はその人を常に先生と呼んでいた。だからここで… [1]上_… 上・一 1_01   
#>  2      2 私が先生と知り合いになったのは鎌倉である。その… [1]上_… 上・一 1_01   
#>  3      3 学校の授業が始まるにはまだ大分日数があるので鎌… [1]上_… 上・一 1_01   
#>  4      4 宿は鎌倉でも辺鄙な方角にあった。玉突きだのアイ… [1]上_… 上・一 1_01   
#>  5      5 私は毎日海へはいりに出掛けた。古い燻ぶり返った… [1]上_… 上・一 1_01   
#>  6      6 私は実に先生をこの雑沓の間に見付け出したのであ… [1]上_… 上・一 1_01   
#>  7      7 私がその掛茶屋で先生を見た時は、先生がちょうど… [1]上_… 上・二 1_02   
#>  8      8 その西洋人の優れて白い皮膚の色が、掛茶屋へ入る… [1]上_… 上・二 1_02   
#>  9      9 彼はやがて自分の傍を顧みて、そこにこごんでいる… [1]上_… 上・二 1_02   
#> 10     10 私は単に好奇心のために、並んで浜辺を下りて行く… [1]上_… 上・二 1_02   
#> # ℹ 1,203 more rows
…
codes
#> # A tibble: 537 × 8
#>    doc_id section        label  token_id token    pos      original code      
#>     <int> <chr>          <chr>     <int> <chr>    <chr>    <chr>    <chr>     
#>  1      2 [1]上_先生と私 上・一       36 友達     名詞     友達     友情      
#>  2      2 [1]上_先生と私 上・一       96 友達     名詞     友達     友情      
#>  3      2 [1]上_先生と私 上・一      115 病気     サ変名詞 病気     病気      
#>  4      2 [1]上_先生と私 上・一      124 友達     名詞     友達     友情      
#>  5      2 [1]上_先生と私 上・一      128 信じ     動詞     信じる   信用・不信
#>  6      2 [1]上_先生と私 上・一      132 友達     名詞     友達     友情      
#>  7      2 [1]上_先生と私 上・一      240 病気     サ変名詞 病気     病気      
#>  8      3 [1]上_先生と私 上・一       44 友達     名詞     友達     友情      
#>  9     19 [1]上_先生と私 上・三      207 疑っ     動詞     疑う     信用・不信
#> 10     21 [1]上_先生と私 上・四      161 亡くなっ 動詞     亡くなる 人の死    
#> # ℹ 527 more rows
…
Excel向けの出力は見やすいようにカラムを分けているが、Rのデータフレームとして扱うならtidyな縦長のデータにしたほうがよい。

1.4.1 品詞別・上位15語

Code

dplyr::tbl(con, "tokens") |>
  dplyr::filter(
    !pos %in% c("その他", "名詞B", "動詞B", "形容詞B", "副詞B", "否定助動詞", "形容詞（非自立）")
  ) |>
  dplyr::mutate(token = dplyr::if_else(is.na(original), token, original)) |>
  dplyr::count(token, pos) |>
  dplyr::slice_max(n, n = 15, by = pos) |>
  dplyr::collect()
#> # A tibble: 232 × 3
#>    token  pos       n
#>    <chr>  <chr> <dbl>
#>  1 少し   副詞     84
#>  2 突然   副詞     47
#>  3 実際   副詞     42
#>  4 全く   副詞     41
#>  5 時々   副詞     35
#>  6 決して 副詞     35
#>  7 無論   副詞     32
#>  8 段々   副詞     29
#>  9 何とも 副詞     22
#> 10 色々   副詞     22
#> # ℹ 222 more rows

1.4.2 頻出150語

Code

dplyr::tbl(con, "tokens") |>
  dplyr::filter(
    !pos %in% c("その他", "名詞B", "動詞B", "形容詞B", "副詞B", "否定助動詞", "形容詞（非自立）")
  ) |>
  dplyr::mutate(token = dplyr::if_else(is.na(original), token, original)) |>
  dplyr::count(token, pos) |>
  dplyr::slice_max(n, n = 150) |>
  dplyr::collect()
#> # A tibble: 152 × 3
#>    token  pos        n
#>    <chr>  <chr>  <dbl>
#>  1 先生   名詞     595
#>  2 K      未知語   411
#>  3 奥さん 名詞     388
#>  4 思う   動詞     293
#>  5 父     名詞C    269
#>  6 自分   名詞     264
#>  7 見る   動詞     225
#>  8 聞く   動詞     218
#>  9 出る   動詞     179
#> 10 人     名詞C    176
#> # ℹ 142 more rows
…
