Cookbook to Draw KHCoder-like Visualizations Using R - 1 前処理メニュー
…
tbl <-
  readxl::read_xls("tutorial_jp/kokoro.xls",
    col_names = c("text", "section", "chapter", "label"),
    skip = 1
  ) |>
  dplyr::mutate(
    doc_id = dplyr::row_number(),
    dplyr::across(where(is.character), ~ audubon::strj_normalize(.))
  ) |>
  dplyr::filter(!gibasa::is_blank(text)) |>
  dplyr::relocate(doc_id, text, section, label, chapter)

tbl
#> # A tibble: 1,213 × 5
#>    doc_id text                                            section label  chapter
#>     <int> <chr>                                           <chr>   <chr>  <chr>  
#>  1      1 私はその人を常に先生と呼んでいた。だからここで… [1]上_… 上・一 1_01   
#>  2      2 私が先生と知り合いになったのは鎌倉である。その… [1]上_… 上・一 1_01   
#>  3      3 学校の授業が始まるにはまだ大分日数があるので鎌… [1]上_… 上・一 1_01   
#>  4      4 宿は鎌倉でも辺鄙な方角にあった。玉突きだのアイ… [1]上_… 上・一 1_01   
#>  5      5 私は毎日海へはいりに出掛けた。古い燻ぶり返った… [1]上_… 上・一 1_01   
#>  6      6 私は実に先生をこの雑沓の間に見付け出したのであ… [1]上_… 上・一 1_01   
#>  7      7 私がその掛茶屋で先生を見た時は、先生がちょうど… [1]上_… 上・二 1_02   
#>  8      8 その西洋人の優れて白い皮膚の色が、掛茶屋へ入る… [1]上_… 上・二 1_02   
#>  9      9 彼はやがて自分の傍を顧みて、そこにこごんでいる… [1]上_… 上・二 1_02   
#> 10     10 私は単に好奇心のために、並んで浜辺を下りて行く… [1]上_… 上・二 1_02   
#> # ℹ 1,203 more rows
…
codes
#> # A tibble: 537 × 8
#>    doc_id section        label  token_id token    pos      original code      
#>     <int> <chr>          <chr>     <int> <chr>    <chr>    <chr>    <chr>     
#>  1      2 [1]上_先生と私 上・一       36 友達     名詞     友達     友情      
#>  2      2 [1]上_先生と私 上・一       96 友達     名詞     友達     友情      
#>  3      2 [1]上_先生と私 上・一      115 病気     サ変名詞 病気     病気      
#>  4      2 [1]上_先生と私 上・一      124 友達     名詞     友達     友情      
#>  5      2 [1]上_先生と私 上・一      128 信じ     動詞     信じる   信用・不信
#>  6      2 [1]上_先生と私 上・一      132 友達     名詞     友達     友情      
#>  7      2 [1]上_先生と私 上・一      240 病気     サ変名詞 病気     病気      
#>  8      3 [1]上_先生と私 上・一       44 友達     名詞     友達     友情      
#>  9     19 [1]上_先生と私 上・三      207 疑っ     動詞     疑う     信用・不信
#> 10     21 [1]上_先生と私 上・四      161 亡くなっ 動詞     亡くなる 人の死    
#> # ℹ 527 more rows
…
Excel向けの出力は見やすいようにカラムを分けているが、Rのデータフレームとして扱うならtidyな縦長のデータにしたほうがよい。

1.4.1 品詞別・上位15語

Code

dplyr::tbl(con, "tokens") |>
  dplyr::filter(
    !pos %in% c("その他", "名詞B", "動詞B", "形容詞B", "副詞B", "否定助動詞", "形容詞（非自立）")
  ) |>
  dplyr::mutate(token = dplyr::if_else(is.na(original), token, original)) |>
  dplyr::count(token, pos) |>
  dplyr::slice_max(n, n = 15, by = pos) |>
  dplyr::collect()
#> # A tibble: 232 × 3
#>    token pos          n
#>    <chr> <chr>    <dbl>
#>  1 話    サ変名詞    70
#>  2 意味  サ変名詞    69
#>  3 病気  サ変名詞    63
#>  4 卒業  サ変名詞    58
#>  5 返事  サ変名詞    53
#>  6 記憶  サ変名詞    33
#>  7 想像  サ変名詞    32
#>  8 心配  サ変名詞    29
#>  9 注意  サ変名詞    29
#> 10 覚悟  サ変名詞    26
#> # ℹ 222 more rows

1.4.2 頻出150語

Code

dplyr::tbl(con, "tokens") |>
  dplyr::filter(
    !pos %in% c("その他", "名詞B", "動詞B", "形容詞B", "副詞B", "否定助動詞", "形容詞（非自立）")
  ) |>
  dplyr::mutate(token = dplyr::if_else(is.na(original), token, original)) |>
  dplyr::count(token, pos) |>
  dplyr::slice_max(n, n = 150) |>
  dplyr::collect()
#> # A tibble: 152 × 3
#>    token  pos        n
#>    <chr>  <chr>  <dbl>
#>  1 先生   名詞     595
#>  2 K      未知語   411
#>  3 奥さん 名詞     388
#>  4 思う   動詞     293
#>  5 父     名詞C    269
#>  6 自分   名詞     264
#>  7 見る   動詞     225
#>  8 聞く   動詞     218
#>  9 出る   動詞     179
#> 10 人     名詞C    176
#> # ℹ 142 more rows
…
embeddings
#> # A tibble: 10,578 × 103
#>    doc_id token  label        dim_1  dim_2   dim_3   dim_4  dim_5   dim_6  dim_7
#>     <int> <chr>  <chr>        <dbl>  <dbl>   <dbl>   <dbl>  <dbl>   <dbl>  <dbl>
#>  1      1 世間   世間/名詞   0.367  -0.711 -0.418  -0.261  -0.296 -0.0888 -0.216
#>  2      1 憚     憚/未知語   0.163  -1.03  -0.573   0.104   0.059 -0.319   0.235
#>  3      2 夏休み 夏休み/名…  0.204   0.444 -0.422  -0.0065 -0.472  0.0469  0.312
#>  4      2 東京   東京/地名   0.539  -0.347  0.0582  0.190  -0.399 -0.554  -0.414
#>  5      6 清め   清め/動詞   0.456  -0.755 -0.436   0.396   0.611 -0.878   1.05 
#>  6      6 間     間/名詞C    0.492   0.129  0.0783  0.0069 -0.255 -0.151  -0.275
#>  7      7 間     間/名詞C    0.492   0.129  0.0783  0.0069 -0.255 -0.151  -0.275
#>  8      8 浜     浜/名詞C    0.809  -0.270  0.212   0.557  -0.908 -0.274  -0.214
#>  9      8 肉     肉/名詞C    0.667  -0.113 -0.0736  0.328  -0.134 -0.0013 -0.342
#> 10     10 多人数 多人数/名… -0.0069 -0.123 -0.2     0.481   0.198 -0.0509  0.105
#> # ℹ 10,568 more rows
#> # ℹ 93 more variables: dim_8 <dbl>, dim_9 <dbl>, dim_10 <dbl>, dim_11 <dbl>,
#> #   dim_12 <dbl>, dim_13 <dbl>, dim_14 <dbl>, dim_15 <dbl>, dim_16 <dbl>,
#> #   dim_17 <dbl>, dim_18 <dbl>, dim_19 <dbl>, dim_20 <dbl>, dim_21 <dbl>,
#> #   dim_22 <dbl>, dim_23 <dbl>, dim_24 <dbl>, dim_25 <dbl>, dim_26 <dbl>,
#> #   dim_27 <dbl>, dim_28 <dbl>, dim_29 <dbl>, dim_30 <dbl>, dim_31 <dbl>,
#> #   dim_32 <dbl>, dim_33 <dbl>, dim_34 <dbl>, dim_35 <dbl>, dim_36 <dbl>, …
…
